<?xml version="1.0" standalone="no"?>
<!DOCTYPE svg PUBLIC "-//W3C//DTD SVG 1.1//EN" "http://www.w3.org/Graphics/SVG/1.1/DTD/svg11.dtd" >
<svg xmlns="http://www.w3.org/2000/svg">
<metadata>Generated by IcoMoon</metadata>
<defs>
<font id="icomoon" horiz-adv-x="1024">
<font-face units-per-em="1024" ascent="960" descent="-64" />
<missing-glyph horiz-adv-x="1024" />
<glyph unicode="&#x20;" horiz-adv-x="512" d="" />
<glyph unicode="&#xe900;" glyph-name="bomberos" d="M702.293 404.821c-0.060-0.001-0.13-0.001-0.201-0.001-12.682 0-23.039 9.951-23.69 22.471l-0.002 0.058c-0.669 11.373-1.885 21.81-3.653 32.059l0.24-1.68c-45.729 20.961-99.204 33.182-155.532 33.182-2.621 0-5.236-0.026-7.845-0.079l0.39 0.006c-2.12 0.042-4.619 0.067-7.124 0.067-56.458 0-110.047-12.282-158.242-34.321l2.378 0.974c-1.533-8.577-2.749-19.015-3.377-29.611l-0.036-0.768c-0.828-12.476-11.119-22.291-23.716-22.357h-0.007c-11.435 0-23.893-17.067-23.893-43.691s37.035-51.2 47.787-51.2c11.001-0.837 20.027-8.422 22.994-18.59l0.046-0.183c18.261-86.528 115.029-123.733 143.189-123.733s124.757 37.205 143.019 123.733c2.424 10.773 11.882 18.711 23.204 18.773h0.007c13.824 0 47.616 27.307 47.616 51.2s-14.165 43.691-23.552 43.691zM419.499 328.533c-21.302 0-38.571 17.269-38.571 38.571s17.269 38.571 38.571 38.571c21.302 0 38.571-17.269 38.571-38.571v0c0-21.302-17.269-38.571-38.571-38.571v0zM604.501 328.533c-21.302 0-38.571 17.269-38.571 38.571s17.269 38.571 38.571 38.571c21.302 0 38.571-17.269 38.571-38.571v0c-0.096-21.263-17.308-38.474-38.561-38.571h-0.009zM503.637 569.685h16.555c14.848 8.704 44.544 28.501 44.544 48.469v52.565h-105.643v-52.053c0-20.48 29.696-40.277 44.544-48.981zM512 960c-282.77 0-512-229.23-512-512s229.23-512 512-512c282.77 0 512 229.23 512 512v0c0 282.77-229.23 512-512 512v0zM704.512 229.035c-7.484-2.348-16.245-4.099-25.276-4.913l-0.495-0.036c-44.203-72.704-130.901-104.448-166.912-104.448s-120.661 31.061-165.376 102.4c-10.258 1.703-19.381 4.254-28.073 7.662l0.937-0.324c-87.723 27.136-145.237 99.157-145.237 150.357 0 89.771 104.448 120.661 104.448 120.661-0.018 1.091-0.028 2.378-0.028 3.668 0 112.118 75.762 206.54 178.884 234.865l1.709 0.4v10.752c0 14.61 11.844 26.453 26.453 26.453h52.907c0.051 0 0.111 0.001 0.171 0.001 14.516 0 26.283-11.767 26.283-26.283 0-0.060 0-0.12-0.001-0.18v0.009-10.069c104.917-28.667 180.763-123.132 180.763-235.311 0-1.274-0.010-2.545-0.029-3.814l0.002 0.192s104.277-36.011 104.277-121.344c0-51.2-57.685-123.221-145.408-150.699z" />
<glyph unicode="&#xe901;" glyph-name="call-center" d="M629.589 518.144l-38.571-63.317h43.691v69.461l-1.024 0.171-4.096-6.315zM512 960c-282.77 0-512-229.23-512-512s229.23-512 512-512c282.77 0 512 229.23 512 512v0c0 282.77-229.23 512-512 512v0zM818.176 256.512c-2.048-30.72-54.101-128-285.867-132.437-223.232-4.267-273.067 86.869-278.016 115.541l-6.315 46.933c-0.008 0.206-0.013 0.447-0.013 0.689 0 10.004 7.97 18.147 17.907 18.425l0.026 0.001 133.632 4.096c0.155 0.005 0.336 0.007 0.519 0.007 10.096 0 18.314-8.043 18.595-18.072l0.001-0.026-2.219-47.104c2.389-21.163 29.013-25.6 56.661-27.648l113.835 3.584c47.104 6.315 70.827 11.435 72.533 31.061l-8.192 46.933c-0.005 0.155-0.007 0.336-0.007 0.519 0 10.096 8.043 18.314 18.072 18.595l0.026 0.001 133.632 4.096c0.206 0.008 0.447 0.013 0.689 0.013 10.004 0 18.147-7.97 18.425-17.907l0.001-0.026zM435.883 407.381h87.723v-40.107h-157.184v34.133l72.021 75.776c7.496 8.198 14.169 17.373 19.751 27.245l0.387 0.745c3.683 6.167 6.035 13.518 6.48 21.379l0.006 0.125c0.028 0.484 0.043 1.050 0.043 1.62 0 7.231-2.526 13.871-6.744 19.088l0.045-0.057c-4.439 4.774-10.755 7.752-17.766 7.752-0.655 0-1.304-0.026-1.946-0.077l0.085 0.005c-0.18 0.006-0.392 0.009-0.605 0.009-7.488 0-14.060-3.92-17.776-9.82l-0.051-0.087c-4.2-6.735-6.69-14.913-6.69-23.672 0-0.618 0.012-1.233 0.037-1.845l-0.003 0.088h-51.2v0.853c-0.045 0.944-0.071 2.049-0.071 3.161 0 19.332 7.783 36.847 20.386 49.581l-0.006-0.006c13.487 13.44 32.094 21.749 52.642 21.749 1.174 0 2.341-0.027 3.501-0.081l-0.164 0.006c1.531 0.098 3.32 0.154 5.122 0.154 19.987 0 38.369-6.871 52.912-18.381l-0.178 0.136c12.848-11.634 20.885-28.376 20.885-46.996 0-0.999-0.023-1.992-0.069-2.979l0.005 0.14c0.009-0.402 0.014-0.876 0.014-1.351 0-13.487-4.085-26.020-11.085-36.43l0.148 0.234c-13.188-18.018-26.508-33.882-40.788-48.819l0.17 0.179-30.379-32.597zM708.949 454.656v-40.107h-22.357v-47.275h-51.2v47.445h-87.040l-3.072 31.915 90.112 144.896h51.2v-136.533zM836.267 399.36c-2.152-10.725-11.495-18.691-22.699-18.691-12.773 0-23.128 10.355-23.128 23.128 0 1.57 0.156 3.103 0.454 4.585l-0.025-0.148c3.113 15.304 4.896 32.896 4.896 50.903 0 70.676-27.451 134.94-72.272 182.713l0.134-0.144c-48.731 52.145-117.919 84.644-194.697 84.644-147.040 0-266.24-119.2-266.24-266.24 0-2.999 0.050-5.986 0.148-8.96l-0.011 0.433 39.424 4.096c0.452 0.057 0.975 0.090 1.505 0.090 6.975 0 12.629-5.654 12.629-12.629 0-2.432-0.687-4.703-1.878-6.63l0.031 0.054-46.933-79.189c-2.015-3.372-5.474-5.702-9.501-6.139l-0.056-0.005c-0.392-0.042-0.846-0.067-1.305-0.067-3.736 0-7.098 1.6-9.438 4.153l-0.009 0.010-62.123 68.267c-2.005 2.226-3.231 5.188-3.231 8.437 0 1.631 0.309 3.189 0.872 4.62l-0.030-0.086c1.716 4.443 5.717 7.646 10.523 8.187l0.058 0.005 23.723 2.56c-0.162 3.764-0.255 8.18-0.255 12.617 0 172.49 139.83 312.32 312.32 312.32 89.912 0 170.951-37.994 227.936-98.803l0.159-0.171c52.479-55.936 84.715-131.408 84.715-214.409 0-21.051-2.074-41.618-6.028-61.508l0.331 1.997z" />
<glyph unicode="&#xe902;" glyph-name="user" d="M512 960c-282.77 0-512-229.23-512-512s229.23-512 512-512c282.77 0 512 229.23 512 512v0c0 282.77-229.23 512-512 512v0zM404.309 631.467c15.637 45.325 57.929 77.302 107.691 77.302s92.054-31.977 107.451-76.503l0.24-0.798c2.711-8.6 4.273-18.49 4.273-28.744 0-0.395-0.002-0.789-0.007-1.182l0.001 0.060c-0.172-33.926-16.518-63.998-41.715-82.921l-0.269-0.193c-15.045-11.588-33.446-19.558-53.512-22.292l-0.589-0.066c-4.795-0.721-10.328-1.133-15.957-1.133s-11.163 0.412-16.571 1.207l0.614-0.074c-20.715 2.785-39.175 10.757-54.542 22.557l0.27-0.199c-25.38 19.164-41.656 49.223-41.813 83.089v0.026c0 0.015 0 0.032 0 0.049 0 10.638 1.622 20.897 4.632 30.543l-0.195-0.725zM294.229 187.733l19.627 116.565c3.575 25.083 10.94 47.742 21.558 68.459l-0.566-1.216c17.002 33.221 45.296 58.637 79.711 71.518l1.014 0.333s0 0 0 0c2.352-2.31 4.856-4.49 7.487-6.513l0.193-0.143 1.024-0.853 1.195-0.853 2.389-2.048c8.494-6.464 18.149-12.176 28.44-16.708l0.914-0.359c4.042-1.723 9.095-3.471 14.278-4.905l0.911-0.215h6.827c5.959-1.582 12.953-2.736 20.13-3.224l0.35-0.019c4.096 0 8.021 0 12.117 0h12.117c6.501 0.548 12.335 1.394 18.054 2.557l-0.988-0.168h3.755l3.755 1.024h2.219l5.973 1.877 7.509 2.731c16.648 6.761 30.916 16.044 43.073 27.538l-0.065-0.060c35.616-13.222 64.050-38.777 80.681-71.36l0.385-0.832c10.18-19.808 17.561-42.834 20.868-67.155l0.124-1.111 19.627-116.565z" />
</font></defs></svg>